Forest
S=500
r1=10
r2=2
p=0.3
== PI Policy
(0, 1, 1, 1, 1, 1, 1, 1, 1, 1, 1, 1, 1, 1, 1, 1, 1, 1, 1, 1, 1, 1, 1, 1, 1, 1, 1, 1, 1, 1, 1, 1, 1, 1, 1, 1, 1, 1, 1, 1, 1, 1, 1, 1, 1, 1, 1, 1, 1, 1, 1, 1, 1, 1, 1, 1, 1, 1, 1, 1, 1, 1, 1, 1, 1, 1, 1, 1, 1, 1, 1, 1, 1, 1, 1, 1, 1, 1, 1, 1, 1, 1, 1, 1, 1, 1, 1, 1, 1, 1, 1, 1, 1, 1, 1, 1, 1, 1, 1, 1, 1, 1, 1, 1, 1, 1, 1, 1, 1, 1, 1, 1, 1, 1, 1, 1, 1, 1, 1, 1, 1, 1, 1, 1, 1, 1, 1, 1, 1, 1, 1, 1, 1, 1, 1, 1, 1, 1, 1, 1, 1, 1, 1, 1, 1, 1, 1, 1, 1, 1, 1, 1, 1, 1, 1, 1, 1, 1, 1, 1, 1, 1, 1, 1, 1, 1, 1, 1, 1, 1, 1, 1, 1, 1, 1, 1, 1, 1, 1, 1, 1, 1, 1, 1, 1, 1, 1, 1, 1, 1, 1, 1, 1, 1, 1, 1, 1, 1, 1, 1, 1, 1, 1, 1, 1, 1, 1, 1, 1, 1, 1, 1, 1, 1, 1, 1, 1, 1, 1, 1, 1, 1, 1, 1, 1, 1, 1, 1, 1, 1, 1, 1, 1, 1, 1, 1, 1, 1, 1, 1, 1, 1, 1, 1, 1, 1, 1, 1, 1, 1, 1, 1, 1, 1, 1, 1, 1, 1, 1, 1, 1, 1, 1, 1, 1, 1, 1, 1, 1, 1, 1, 1, 1, 1, 1, 1, 1, 1, 1, 1, 1, 1, 1, 1, 1, 1, 1, 1, 1, 1, 1, 1, 1, 1, 1, 1, 1, 1, 1, 1, 1, 1, 1, 1, 1, 1, 1, 1, 1, 1, 1, 1, 1, 1, 1, 1, 1, 1, 1, 1, 1, 1, 1, 1, 1, 1, 1, 1, 1, 1, 1, 1, 1, 1, 1, 1, 1, 1, 1, 1, 1, 1, 1, 1, 1, 1, 1, 1, 1, 1, 1, 1, 1, 1, 1, 1, 1, 1, 1, 1, 1, 1, 1, 1, 1, 1, 1, 1, 1, 1, 1, 1, 1, 1, 1, 1, 1, 1, 1, 1, 1, 1, 1, 1, 1, 1, 1, 1, 1, 1, 1, 1, 1, 1, 1, 1, 1, 1, 1, 1, 1, 1, 1, 1, 1, 1, 1, 1, 1, 1, 1, 1, 1, 1, 1, 1, 1, 1, 1, 1, 1, 1, 1, 1, 1, 1, 1, 1, 1, 1, 1, 1, 1, 1, 1, 1, 1, 1, 1, 1, 1, 1, 1, 1, 1, 1, 1, 1, 1, 1, 1, 1, 1, 1, 1, 1, 1, 1, 1, 1, 1, 1, 1, 1, 1, 1, 1, 1, 1, 1, 1, 1, 1, 1, 1, 1, 1, 1, 1, 1, 1, 1, 1, 1, 1, 1, 1, 1, 1, 1, 1, 1, 1, 0, 0, 0, 0, 0, 0, 0)
== VI Policy
(0, 1, 1, 1, 1, 1, 1, 1, 1, 1, 1, 1, 1, 1, 1, 1, 1, 1, 1, 1, 1, 1, 1, 1, 1, 1, 1, 1, 1, 1, 1, 1, 1, 1, 1, 1, 1, 1, 1, 1, 1, 1, 1, 1, 1, 1, 1, 1, 1, 1, 1, 1, 1, 1, 1, 1, 1, 1, 1, 1, 1, 1, 1, 1, 1, 1, 1, 1, 1, 1, 1, 1, 1, 1, 1, 1, 1, 1, 1, 1, 1, 1, 1, 1, 1, 1, 1, 1, 1, 1, 1, 1, 1, 1, 1, 1, 1, 1, 1, 1, 1, 1, 1, 1, 1, 1, 1, 1, 1, 1, 1, 1, 1, 1, 1, 1, 1, 1, 1, 1, 1, 1, 1, 1, 1, 1, 1, 1, 1, 1, 1, 1, 1, 1, 1, 1, 1, 1, 1, 1, 1, 1, 1, 1, 1, 1, 1, 1, 1, 1, 1, 1, 1, 1, 1, 1, 1, 1, 1, 1, 1, 1, 1, 1, 1, 1, 1, 1, 1, 1, 1, 1, 1, 1, 1, 1, 1, 1, 1, 1, 1, 1, 1, 1, 1, 1, 1, 1, 1, 1, 1, 1, 1, 1, 1, 1, 1, 1, 1, 1, 1, 1, 1, 1, 1, 1, 1, 1, 1, 1, 1, 1, 1, 1, 1, 1, 1, 1, 1, 1, 1, 1, 1, 1, 1, 1, 1, 1, 1, 1, 1, 1, 1, 1, 1, 1, 1, 1, 1, 1, 1, 1, 1, 1, 1, 1, 1, 1, 1, 1, 1, 1, 1, 1, 1, 1, 1, 1, 1, 1, 1, 1, 1, 1, 1, 1, 1, 1, 1, 1, 1, 1, 1, 1, 1, 1, 1, 1, 1, 1, 1, 1, 1, 1, 1, 1, 1, 1, 1, 1, 1, 1, 1, 1, 1, 1, 1, 1, 1, 1, 1, 1, 1, 1, 1, 1, 1, 1, 1, 1, 1, 1, 1, 1, 1, 1, 1, 1, 1, 1, 1, 1, 1, 1, 1, 1, 1, 1, 1, 1, 1, 1, 1, 1, 1, 1, 1, 1, 1, 1, 1, 1, 1, 1, 1, 1, 1, 1, 1, 1, 1, 1, 1, 1, 1, 1, 1, 1, 1, 1, 1, 1, 1, 1, 1, 1, 1, 1, 1, 1, 1, 1, 1, 1, 1, 1, 1, 1, 1, 1, 1, 1, 1, 1, 1, 1, 1, 1, 1, 1, 1, 1, 1, 1, 1, 1, 1, 1, 1, 1, 1, 1, 1, 1, 1, 1, 1, 1, 1, 1, 1, 1, 1, 1, 1, 1, 1, 1, 1, 1, 1, 1, 1, 1, 1, 1, 1, 1, 1, 1, 1, 1, 1, 1, 1, 1, 1, 1, 1, 1, 1, 1, 1, 1, 1, 1, 1, 1, 1, 1, 1, 1, 1, 1, 1, 1, 1, 1, 1, 1, 1, 1, 1, 1, 1, 1, 1, 1, 1, 1, 1, 1, 1, 1, 1, 1, 1, 1, 1, 1, 1, 1, 1, 1, 1, 1, 1, 1, 1, 1, 1, 1, 1, 0, 0, 0, 0, 0, 0, 0)

== PI Time
0.03640604019165039
== VI Time
0.001367807388305664

== PI Max Iter
1000
== VI Max Iter
20

== PI Run Stat Frequency
{'State': None, 'Action': None, 'Reward': 29.84745481677997, 'Error': 15.368927209418008, 'Time': 0.01418924331665039, 'V[0]': 3.8650306748466248, 'Max V': 29.84745481677997, 'Mean V': 4.528038467915767, 'Iteration': 1}
{'State': None, 'Action': None, 'Reward': 29.847454816779972, 'Error': 9.068927209418007, 'Time': 0.019053220748901367, 'V[0]': 3.8650306748466305, 'Max V': 29.847454816779972, 'Mean V': 4.558776322334608, 'Iteration': 2}
{'State': None, 'Action': None, 'Reward': 29.847454816779972, 'Error': 5.0999272094179995, 'Time': 0.02233719825744629, 'V[0]': 3.8650306748466443, 'Max V': 29.847454816779972, 'Mean V': 4.5769141767534585, 'Iteration': 3}
{'State': None, 'Action': None, 'Reward': 29.847454816779972, 'Error': 2.5994572094180013, 'Time': 0.025203943252563477, 'V[0]': 3.8650306748466443, 'Max V': 29.847454816779972, 'Mean V': 4.587114031172294, 'Iteration': 4}
{'State': None, 'Action': None, 'Reward': 29.847454816779972, 'Error': 1.0241611094180056, 'Time': 0.027671098709106445, 'V[0]': 3.8650306748466403, 'Max V': 29.847454816779972, 'Mean V': 4.592312945591126, 'Iteration': 5}
{'State': None, 'Action': None, 'Reward': 29.847454816779972, 'Error': 0.0317245664180037, 'Time': 0.030952930450439453, 'V[0]': 3.8650306748466443, 'Max V': 29.847454816779972, 'Mean V': 4.5943612678099655, 'Iteration': 6}
{'State': None, 'Action': None, 'Reward': 29.847454816779972, 'Error': 3.552713678800501e-15, 'Time': 0.036347150802612305, 'V[0]': 3.8650306748466443, 'Max V': 29.847454816779972, 'Mean V': 4.594424716942802, 'Iteration': 7}

== VI Run Stat Frequency
{'State': None, 'Action': None, 'Reward': 10.0, 'Error': 10.0, 'Time': 9.298324584960938e-05, 'Epsilon': 0.01, 'Max V': 10.0, 'Mean V': 1.016, 'Iteration': 1}
{'State': None, 'Action': None, 'Reward': 16.3, 'Error': 6.300000000000001, 'Time': 0.00023984909057617188, 'Epsilon': 0.01, 'Max V': 16.3, 'Mean V': 1.04046, 'Iteration': 2}
{'State': None, 'Action': None, 'Reward': 20.4391, 'Error': 3.969, 'Time': 0.0003409385681152344, 'Epsilon': 0.01, 'Max V': 20.4391, 'Mean V': 1.6260988000000003, 'Iteration': 3}
{'State': None, 'Action': None, 'Reward': 23.092660000000002, 'Error': 2.5004700000000026, 'Time': 0.0004220008850097656, 'Epsilon': 0.01, 'Max V': 23.092660000000002, 'Mean V': 1.796898853999999, 'Iteration': 4}
{'State': None, 'Action': None, 'Reward': 24.873249790000003, 'Error': 1.5752961000000005, 'Time': 0.0005009174346923828, 'Epsilon': 0.01, 'Max V': 24.873249790000003, 'Mean V': 2.17079095968, 'Iteration': 5}
{'State': None, 'Action': None, 'Reward': 26.050450654000002, 'Error': 0.9924365430000015, 'Time': 0.0005807876586914062, 'Epsilon': 0.01, 'Max V': 26.050450654000002, 'Mean V': 2.3656781334186, 'Iteration': 6}
{'State': None, 'Action': None, 'Reward': 26.868769351651, 'Error': 0.6252350220900009, 'Time': 0.0006568431854248047, 'Epsilon': 0.01, 'Max V': 26.868769351651, 'Mean V': 2.626788816288754, 'Iteration': 7}
{'State': None, 'Action': None, 'Reward': 27.4364427235726, 'Error': 0.39389806391670223, 'Time': 0.0007350444793701172, 'Epsilon': 0.01, 'Max V': 27.4364427235726, 'Mean V': 2.805369680673437, 'Iteration': 8}
{'State': None, 'Action': None, 'Reward': 27.85163152877028, 'Error': 0.24815578026752316, 'Time': 0.0008089542388916016, 'Epsilon': 0.01, 'Max V': 27.85163152877028, 'Mean V': 2.999848734901186, 'Iteration': 9}
{'State': None, 'Action': None, 'Reward': 28.158299392775966, 'Error': 0.15633814156854076, 'Time': 0.0008840560913085938, 'Epsilon': 0.01, 'Max V': 28.158299392775966, 'Mean V': 3.1520857826654676, 'Iteration': 10}
{'State': None, 'Action': None, 'Reward': 28.396310301979923, 'Error': 0.09849302918818248, 'Time': 0.0009589195251464844, 'Epsilon': 0.01, 'Max V': 28.396310301979923, 'Mean V': 3.30249699170946, 'Iteration': 11}
{'State': None, 'Action': None, 'Reward': 28.58392700238268, 'Error': 0.06205060838855436, 'Time': 0.0010318756103515625, 'Epsilon': 0.01, 'Max V': 28.58392700238268, 'Mean V': 3.428820101146003, 'Iteration': 12}
{'State': None, 'Action': None, 'Reward': 28.73770373490674, 'Error': 0.039091883284790185, 'Time': 0.0011060237884521484, 'Epsilon': 0.01, 'Max V': 28.73770373490674, 'Mean V': 3.5478285126765745, 'Iteration': 13}
{'State': None, 'Action': None, 'Reward': 28.865547985691503, 'Error': 0.024627886469417604, 'Time': 0.0011799335479736328, 'Epsilon': 0.01, 'Max V': 28.865547985691503, 'Mean V': 3.651345337206846, 'Iteration': 14}
{'State': None, 'Action': None, 'Reward': 28.97462323498572, 'Error': 0.01551556847573421, 'Time': 0.0012538433074951172, 'Epsilon': 0.01, 'Max V': 28.97462323498572, 'Mean V': 3.7466336943893865, 'Iteration': 15}
{'State': None, 'Action': None, 'Reward': 29.06860175586207, 'Error': 0.009774808139713098, 'Time': 0.0013298988342285156, 'Epsilon': 0.01, 'Max V': 29.06860175586207, 'Mean V': 3.8309762094016078, 'Iteration': 16}

